# 1 "p/3d.Linux.64.mpiCC.mpif90.OPT.MPI-blpdata/DivergenceF.C"
# 1 "/global/u2/p/psli/Orion2/Lib/Chombo/lib/src/MHDTools/../../src/BaseTools/REAL.H"
# 10 "/global/u2/p/psli/Orion2/Lib/Chombo/lib/src/MHDTools/../../src/BaseTools/REAL.H"





# 24 "/global/u2/p/psli/Orion2/Lib/Chombo/lib/src/MHDTools/../../src/BaseTools/REAL.H"

# 41 "/global/u2/p/psli/Orion2/Lib/Chombo/lib/src/MHDTools/../../src/BaseTools/REAL.H"

# 54 "/global/u2/p/psli/Orion2/Lib/Chombo/lib/src/MHDTools/../../src/BaseTools/REAL.H"



# 65 "/global/u2/p/psli/Orion2/Lib/Chombo/lib/src/MHDTools/../../src/BaseTools/REAL.H"





# 2 "p/3d.Linux.64.mpiCC.mpif90.OPT.MPI-blpdata/DivergenceF.C"
# 1 "/global/u2/p/psli/Orion2/Lib/Chombo/lib/src/MHDTools/../../src/BoxTools/SPACE.H"
# 10 "/global/u2/p/psli/Orion2/Lib/Chombo/lib/src/MHDTools/../../src/BoxTools/SPACE.H"













# 1 "/global/u2/p/psli/Orion2/Lib/Chombo/lib/src/MHDTools/../../src/BaseTools/CH_assert.H"
# 10 "/global/u2/p/psli/Orion2/Lib/Chombo/lib/src/MHDTools/../../src/BaseTools/CH_assert.H"









# 1 "/global/u2/p/psli/Orion2/Lib/Chombo/lib/src/MHDTools/../../src/BaseTools/BaseNamespaceHeader.H"
# 10 "/global/u2/p/psli/Orion2/Lib/Chombo/lib/src/MHDTools/../../src/BaseTools/BaseNamespaceHeader.H"

# 20 "/global/u2/p/psli/Orion2/Lib/Chombo/lib/src/MHDTools/../../src/BaseTools/CH_assert.H"


# 43 "/global/u2/p/psli/Orion2/Lib/Chombo/lib/src/MHDTools/../../src/BaseTools/CH_assert.H"

# 51 "/global/u2/p/psli/Orion2/Lib/Chombo/lib/src/MHDTools/../../src/BaseTools/CH_assert.H"


# 1 "/global/u2/p/psli/Orion2/Lib/Chombo/lib/src/MHDTools/../../src/BaseTools/BaseNamespaceFooter.H"
# 10 "/global/u2/p/psli/Orion2/Lib/Chombo/lib/src/MHDTools/../../src/BaseTools/BaseNamespaceFooter.H"

# 54 "/global/u2/p/psli/Orion2/Lib/Chombo/lib/src/MHDTools/../../src/BaseTools/CH_assert.H"



# 24 "/global/u2/p/psli/Orion2/Lib/Chombo/lib/src/MHDTools/../../src/BoxTools/SPACE.H"

# 1 "/global/u2/p/psli/Orion2/Lib/Chombo/lib/src/MHDTools/../../src/BaseTools/NamespaceHeader.H"
# 10 "/global/u2/p/psli/Orion2/Lib/Chombo/lib/src/MHDTools/../../src/BaseTools/NamespaceHeader.H"

# 26 "/global/u2/p/psli/Orion2/Lib/Chombo/lib/src/MHDTools/../../src/BoxTools/SPACE.H"

# 41 "/global/u2/p/psli/Orion2/Lib/Chombo/lib/src/MHDTools/../../src/BoxTools/SPACE.H"

# 54 "/global/u2/p/psli/Orion2/Lib/Chombo/lib/src/MHDTools/../../src/BoxTools/SPACE.H"













# 1 "/global/u2/p/psli/Orion2/Lib/Chombo/lib/src/MHDTools/../../src/BaseTools/NamespaceFooter.H"
# 10 "/global/u2/p/psli/Orion2/Lib/Chombo/lib/src/MHDTools/../../src/BaseTools/NamespaceFooter.H"

# 68 "/global/u2/p/psli/Orion2/Lib/Chombo/lib/src/MHDTools/../../src/BoxTools/SPACE.H"

# 76 "/global/u2/p/psli/Orion2/Lib/Chombo/lib/src/MHDTools/../../src/BoxTools/SPACE.H"









# 93 "/global/u2/p/psli/Orion2/Lib/Chombo/lib/src/MHDTools/../../src/BoxTools/SPACE.H"

# 143 "/global/u2/p/psli/Orion2/Lib/Chombo/lib/src/MHDTools/../../src/BoxTools/SPACE.H"

# 171 "/global/u2/p/psli/Orion2/Lib/Chombo/lib/src/MHDTools/../../src/BoxTools/SPACE.H"

# 195 "/global/u2/p/psli/Orion2/Lib/Chombo/lib/src/MHDTools/../../src/BoxTools/SPACE.H"

# 3 "p/3d.Linux.64.mpiCC.mpif90.OPT.MPI-blpdata/DivergenceF.C"
# 1 "/global/u2/p/psli/Orion2/Lib/Chombo/lib/src/MHDTools/../../src/BaseTools/CONSTANTS.H"
# 10 "/global/u2/p/psli/Orion2/Lib/Chombo/lib/src/MHDTools/../../src/BaseTools/CONSTANTS.H"


# 1 "/global/u2/p/psli/Orion2/Lib/Chombo/lib/src/MHDTools/../../src/BaseTools/BaseNamespaceHeader.H"
# 10 "/global/u2/p/psli/Orion2/Lib/Chombo/lib/src/MHDTools/../../src/BaseTools/BaseNamespaceHeader.H"

# 15 "/global/u2/p/psli/Orion2/Lib/Chombo/lib/src/MHDTools/../../src/BaseTools/CONSTANTS.H"

# 67 "/global/u2/p/psli/Orion2/Lib/Chombo/lib/src/MHDTools/../../src/BaseTools/CONSTANTS.H"

# 91 "/global/u2/p/psli/Orion2/Lib/Chombo/lib/src/MHDTools/../../src/BaseTools/CONSTANTS.H"

# 115 "/global/u2/p/psli/Orion2/Lib/Chombo/lib/src/MHDTools/../../src/BaseTools/CONSTANTS.H"







# 1 "/global/u2/p/psli/Orion2/Lib/Chombo/lib/src/MHDTools/../../src/BaseTools/BaseNamespaceFooter.H"
# 10 "/global/u2/p/psli/Orion2/Lib/Chombo/lib/src/MHDTools/../../src/BaseTools/BaseNamespaceFooter.H"

# 123 "/global/u2/p/psli/Orion2/Lib/Chombo/lib/src/MHDTools/../../src/BaseTools/CONSTANTS.H"
# 4 "p/3d.Linux.64.mpiCC.mpif90.OPT.MPI-blpdata/DivergenceF.C"

# 1 "/global/u2/p/psli/Orion2/Lib/Chombo/lib/src/MHDTools/../../src/BaseTools/CONSTANTS.H"
# 10 "/global/u2/p/psli/Orion2/Lib/Chombo/lib/src/MHDTools/../../src/BaseTools/CONSTANTS.H"


# 6 "p/3d.Linux.64.mpiCC.mpif90.OPT.MPI-blpdata/DivergenceF.C"
      subroutine DIVERGENCE(
     &           uEdge
     &           ,iuEdgelo0,iuEdgelo1,iuEdgelo2
     &           ,iuEdgehi0,iuEdgehi1,iuEdgehi2
     &           ,div
     &           ,idivlo0,idivlo1,idivlo2
     &           ,idivhi0,idivhi1,idivhi2
     &           ,igridIntlo0,igridIntlo1,igridIntlo2
     &           ,igridInthi0,igridInthi1,igridInthi2
     &           ,dx
     &           ,dir
     &           )

      implicit none
      integer CHF_ID(0:5,0:5)
      data CHF_ID/ 1,0,0,0,0,0 ,0,1,0,0,0,0 ,0,0,1,0,0,0 ,0,0,0,1,0,0 ,0,0,0,0,1,0 ,0,0,0,0,0,1 /


      integer iuEdgelo0,iuEdgelo1,iuEdgelo2
      integer iuEdgehi0,iuEdgehi1,iuEdgehi2
      REAL*8 uEdge(
     &           iuEdgelo0:iuEdgehi0,
     &           iuEdgelo1:iuEdgehi1,
     &           iuEdgelo2:iuEdgehi2)
      integer idivlo0,idivlo1,idivlo2
      integer idivhi0,idivhi1,idivhi2
      REAL*8 div(
     &           idivlo0:idivhi0,
     &           idivlo1:idivhi1,
     &           idivlo2:idivhi2)
      integer igridIntlo0,igridIntlo1,igridIntlo2
      integer igridInthi0,igridInthi1,igridInthi2
      REAL*8 dx
      integer dir
      integer i,j,k
      integer ii,jj,kk
      REAL*8 one_on_dx
      one_on_dx = (1.0d0)/dx
      
      do k = igridIntlo2,igridInthi2
      do j = igridIntlo1,igridInthi1
      do i = igridIntlo0,igridInthi0

      
      ii = i+CHF_ID(0,dir)
      jj = j+CHF_ID(1,dir)
      kk = k+CHF_ID(2,dir)
      div(i,j,k) = div(i,j,k)
     &                      +one_on_dx*(uEdge(ii,jj,kk)
     &                                 -uEdge(i,j,k))
      
      enddo
      enddo
      enddo
      return
      end
