# 1 "p/3d.Linux.64.mpiCC.mpif90.OPT.MPI-blpdata/EdgeToCellF.C"
# 1 "/global/u2/p/psli/Orion2/Lib/Chombo/lib/src/MHDTools/../../src/BaseTools/REAL.H"
# 10 "/global/u2/p/psli/Orion2/Lib/Chombo/lib/src/MHDTools/../../src/BaseTools/REAL.H"





# 24 "/global/u2/p/psli/Orion2/Lib/Chombo/lib/src/MHDTools/../../src/BaseTools/REAL.H"

# 41 "/global/u2/p/psli/Orion2/Lib/Chombo/lib/src/MHDTools/../../src/BaseTools/REAL.H"

# 54 "/global/u2/p/psli/Orion2/Lib/Chombo/lib/src/MHDTools/../../src/BaseTools/REAL.H"



# 65 "/global/u2/p/psli/Orion2/Lib/Chombo/lib/src/MHDTools/../../src/BaseTools/REAL.H"





# 2 "p/3d.Linux.64.mpiCC.mpif90.OPT.MPI-blpdata/EdgeToCellF.C"
# 1 "/global/u2/p/psli/Orion2/Lib/Chombo/lib/src/MHDTools/../../src/BoxTools/SPACE.H"
# 10 "/global/u2/p/psli/Orion2/Lib/Chombo/lib/src/MHDTools/../../src/BoxTools/SPACE.H"













# 1 "/global/u2/p/psli/Orion2/Lib/Chombo/lib/src/MHDTools/../../src/BaseTools/CH_assert.H"
# 10 "/global/u2/p/psli/Orion2/Lib/Chombo/lib/src/MHDTools/../../src/BaseTools/CH_assert.H"









# 1 "/global/u2/p/psli/Orion2/Lib/Chombo/lib/src/MHDTools/../../src/BaseTools/BaseNamespaceHeader.H"
# 10 "/global/u2/p/psli/Orion2/Lib/Chombo/lib/src/MHDTools/../../src/BaseTools/BaseNamespaceHeader.H"

# 20 "/global/u2/p/psli/Orion2/Lib/Chombo/lib/src/MHDTools/../../src/BaseTools/CH_assert.H"


# 43 "/global/u2/p/psli/Orion2/Lib/Chombo/lib/src/MHDTools/../../src/BaseTools/CH_assert.H"

# 51 "/global/u2/p/psli/Orion2/Lib/Chombo/lib/src/MHDTools/../../src/BaseTools/CH_assert.H"


# 1 "/global/u2/p/psli/Orion2/Lib/Chombo/lib/src/MHDTools/../../src/BaseTools/BaseNamespaceFooter.H"
# 10 "/global/u2/p/psli/Orion2/Lib/Chombo/lib/src/MHDTools/../../src/BaseTools/BaseNamespaceFooter.H"

# 54 "/global/u2/p/psli/Orion2/Lib/Chombo/lib/src/MHDTools/../../src/BaseTools/CH_assert.H"



# 24 "/global/u2/p/psli/Orion2/Lib/Chombo/lib/src/MHDTools/../../src/BoxTools/SPACE.H"

# 1 "/global/u2/p/psli/Orion2/Lib/Chombo/lib/src/MHDTools/../../src/BaseTools/NamespaceHeader.H"
# 10 "/global/u2/p/psli/Orion2/Lib/Chombo/lib/src/MHDTools/../../src/BaseTools/NamespaceHeader.H"

# 26 "/global/u2/p/psli/Orion2/Lib/Chombo/lib/src/MHDTools/../../src/BoxTools/SPACE.H"

# 41 "/global/u2/p/psli/Orion2/Lib/Chombo/lib/src/MHDTools/../../src/BoxTools/SPACE.H"

# 54 "/global/u2/p/psli/Orion2/Lib/Chombo/lib/src/MHDTools/../../src/BoxTools/SPACE.H"













# 1 "/global/u2/p/psli/Orion2/Lib/Chombo/lib/src/MHDTools/../../src/BaseTools/NamespaceFooter.H"
# 10 "/global/u2/p/psli/Orion2/Lib/Chombo/lib/src/MHDTools/../../src/BaseTools/NamespaceFooter.H"

# 68 "/global/u2/p/psli/Orion2/Lib/Chombo/lib/src/MHDTools/../../src/BoxTools/SPACE.H"

# 76 "/global/u2/p/psli/Orion2/Lib/Chombo/lib/src/MHDTools/../../src/BoxTools/SPACE.H"









# 93 "/global/u2/p/psli/Orion2/Lib/Chombo/lib/src/MHDTools/../../src/BoxTools/SPACE.H"

# 143 "/global/u2/p/psli/Orion2/Lib/Chombo/lib/src/MHDTools/../../src/BoxTools/SPACE.H"

# 171 "/global/u2/p/psli/Orion2/Lib/Chombo/lib/src/MHDTools/../../src/BoxTools/SPACE.H"

# 195 "/global/u2/p/psli/Orion2/Lib/Chombo/lib/src/MHDTools/../../src/BoxTools/SPACE.H"

# 3 "p/3d.Linux.64.mpiCC.mpif90.OPT.MPI-blpdata/EdgeToCellF.C"
# 1 "/global/u2/p/psli/Orion2/Lib/Chombo/lib/src/MHDTools/../../src/BaseTools/CONSTANTS.H"
# 10 "/global/u2/p/psli/Orion2/Lib/Chombo/lib/src/MHDTools/../../src/BaseTools/CONSTANTS.H"


# 1 "/global/u2/p/psli/Orion2/Lib/Chombo/lib/src/MHDTools/../../src/BaseTools/BaseNamespaceHeader.H"
# 10 "/global/u2/p/psli/Orion2/Lib/Chombo/lib/src/MHDTools/../../src/BaseTools/BaseNamespaceHeader.H"

# 15 "/global/u2/p/psli/Orion2/Lib/Chombo/lib/src/MHDTools/../../src/BaseTools/CONSTANTS.H"

# 67 "/global/u2/p/psli/Orion2/Lib/Chombo/lib/src/MHDTools/../../src/BaseTools/CONSTANTS.H"

# 91 "/global/u2/p/psli/Orion2/Lib/Chombo/lib/src/MHDTools/../../src/BaseTools/CONSTANTS.H"

# 115 "/global/u2/p/psli/Orion2/Lib/Chombo/lib/src/MHDTools/../../src/BaseTools/CONSTANTS.H"







# 1 "/global/u2/p/psli/Orion2/Lib/Chombo/lib/src/MHDTools/../../src/BaseTools/BaseNamespaceFooter.H"
# 10 "/global/u2/p/psli/Orion2/Lib/Chombo/lib/src/MHDTools/../../src/BaseTools/BaseNamespaceFooter.H"

# 123 "/global/u2/p/psli/Orion2/Lib/Chombo/lib/src/MHDTools/../../src/BaseTools/CONSTANTS.H"
# 4 "p/3d.Linux.64.mpiCC.mpif90.OPT.MPI-blpdata/EdgeToCellF.C"

# 1 "/global/u2/p/psli/Orion2/Lib/Chombo/lib/src/MHDTools/../../src/BaseTools/CONSTANTS.H"
# 10 "/global/u2/p/psli/Orion2/Lib/Chombo/lib/src/MHDTools/../../src/BaseTools/CONSTANTS.H"


# 6 "p/3d.Linux.64.mpiCC.mpif90.OPT.MPI-blpdata/EdgeToCellF.C"
      subroutine EDGETOCELL(
     &           edgeData
     &           ,iedgeDatalo0,iedgeDatalo1,iedgeDatalo2
     &           ,iedgeDatahi0,iedgeDatahi1,iedgeDatahi2
     &           ,cellData
     &           ,icellDatalo0,icellDatalo1,icellDatalo2
     &           ,icellDatahi0,icellDatahi1,icellDatahi2
     &           ,icellBoxlo0,icellBoxlo1,icellBoxlo2
     &           ,icellBoxhi0,icellBoxhi1,icellBoxhi2
     &           ,dir
     &           )

      implicit none
      integer CHF_ID(0:5,0:5)
      data CHF_ID/ 1,0,0,0,0,0 ,0,1,0,0,0,0 ,0,0,1,0,0,0 ,0,0,0,1,0,0 ,0,0,0,0,1,0 ,0,0,0,0,0,1 /


      integer iedgeDatalo0,iedgeDatalo1,iedgeDatalo2
      integer iedgeDatahi0,iedgeDatahi1,iedgeDatahi2
      REAL*8 edgeData(
     &           iedgeDatalo0:iedgeDatahi0,
     &           iedgeDatalo1:iedgeDatahi1,
     &           iedgeDatalo2:iedgeDatahi2)
      integer icellDatalo0,icellDatalo1,icellDatalo2
      integer icellDatahi0,icellDatahi1,icellDatahi2
      REAL*8 cellData(
     &           icellDatalo0:icellDatahi0,
     &           icellDatalo1:icellDatahi1,
     &           icellDatalo2:icellDatahi2)
      integer icellBoxlo0,icellBoxlo1,icellBoxlo2
      integer icellBoxhi0,icellBoxhi1,icellBoxhi2
      integer dir
      integer i,j,k
      integer ii,jj,kk
      
      do k = icellBoxlo2,icellBoxhi2
      do j = icellBoxlo1,icellBoxhi1
      do i = icellBoxlo0,icellBoxhi0

      
      ii = i+CHF_ID(0,dir)
      jj = j+CHF_ID(1,dir)
      kk = k+CHF_ID(2,dir)
      cellData(i,j,k) = (0.500d0)*(
     &                    edgeData(i,j,k)
     &                   +edgeData(ii,jj,kk))
      
      enddo
      enddo
      enddo
      return
      end
