# 1 "p/3d.Linux.64.mpiCC.mpif90.OPT.MPI-blpdata/MhdF.C"
# 1 "/global/u2/p/psli/Orion2/Lib/Chombo/lib/src/MHDTools/../../src/BaseTools/REAL.H"
# 10 "/global/u2/p/psli/Orion2/Lib/Chombo/lib/src/MHDTools/../../src/BaseTools/REAL.H"





# 24 "/global/u2/p/psli/Orion2/Lib/Chombo/lib/src/MHDTools/../../src/BaseTools/REAL.H"

# 41 "/global/u2/p/psli/Orion2/Lib/Chombo/lib/src/MHDTools/../../src/BaseTools/REAL.H"

# 54 "/global/u2/p/psli/Orion2/Lib/Chombo/lib/src/MHDTools/../../src/BaseTools/REAL.H"



# 65 "/global/u2/p/psli/Orion2/Lib/Chombo/lib/src/MHDTools/../../src/BaseTools/REAL.H"





# 2 "p/3d.Linux.64.mpiCC.mpif90.OPT.MPI-blpdata/MhdF.C"
# 1 "/global/u2/p/psli/Orion2/Lib/Chombo/lib/src/MHDTools/../../src/BoxTools/SPACE.H"
# 10 "/global/u2/p/psli/Orion2/Lib/Chombo/lib/src/MHDTools/../../src/BoxTools/SPACE.H"













# 1 "/global/u2/p/psli/Orion2/Lib/Chombo/lib/src/MHDTools/../../src/BaseTools/CH_assert.H"
# 10 "/global/u2/p/psli/Orion2/Lib/Chombo/lib/src/MHDTools/../../src/BaseTools/CH_assert.H"









# 1 "/global/u2/p/psli/Orion2/Lib/Chombo/lib/src/MHDTools/../../src/BaseTools/BaseNamespaceHeader.H"
# 10 "/global/u2/p/psli/Orion2/Lib/Chombo/lib/src/MHDTools/../../src/BaseTools/BaseNamespaceHeader.H"

# 20 "/global/u2/p/psli/Orion2/Lib/Chombo/lib/src/MHDTools/../../src/BaseTools/CH_assert.H"


# 43 "/global/u2/p/psli/Orion2/Lib/Chombo/lib/src/MHDTools/../../src/BaseTools/CH_assert.H"

# 51 "/global/u2/p/psli/Orion2/Lib/Chombo/lib/src/MHDTools/../../src/BaseTools/CH_assert.H"


# 1 "/global/u2/p/psli/Orion2/Lib/Chombo/lib/src/MHDTools/../../src/BaseTools/BaseNamespaceFooter.H"
# 10 "/global/u2/p/psli/Orion2/Lib/Chombo/lib/src/MHDTools/../../src/BaseTools/BaseNamespaceFooter.H"

# 54 "/global/u2/p/psli/Orion2/Lib/Chombo/lib/src/MHDTools/../../src/BaseTools/CH_assert.H"



# 24 "/global/u2/p/psli/Orion2/Lib/Chombo/lib/src/MHDTools/../../src/BoxTools/SPACE.H"

# 1 "/global/u2/p/psli/Orion2/Lib/Chombo/lib/src/MHDTools/../../src/BaseTools/NamespaceHeader.H"
# 10 "/global/u2/p/psli/Orion2/Lib/Chombo/lib/src/MHDTools/../../src/BaseTools/NamespaceHeader.H"

# 26 "/global/u2/p/psli/Orion2/Lib/Chombo/lib/src/MHDTools/../../src/BoxTools/SPACE.H"

# 41 "/global/u2/p/psli/Orion2/Lib/Chombo/lib/src/MHDTools/../../src/BoxTools/SPACE.H"

# 54 "/global/u2/p/psli/Orion2/Lib/Chombo/lib/src/MHDTools/../../src/BoxTools/SPACE.H"













# 1 "/global/u2/p/psli/Orion2/Lib/Chombo/lib/src/MHDTools/../../src/BaseTools/NamespaceFooter.H"
# 10 "/global/u2/p/psli/Orion2/Lib/Chombo/lib/src/MHDTools/../../src/BaseTools/NamespaceFooter.H"

# 68 "/global/u2/p/psli/Orion2/Lib/Chombo/lib/src/MHDTools/../../src/BoxTools/SPACE.H"

# 76 "/global/u2/p/psli/Orion2/Lib/Chombo/lib/src/MHDTools/../../src/BoxTools/SPACE.H"









# 93 "/global/u2/p/psli/Orion2/Lib/Chombo/lib/src/MHDTools/../../src/BoxTools/SPACE.H"

# 143 "/global/u2/p/psli/Orion2/Lib/Chombo/lib/src/MHDTools/../../src/BoxTools/SPACE.H"

# 171 "/global/u2/p/psli/Orion2/Lib/Chombo/lib/src/MHDTools/../../src/BoxTools/SPACE.H"

# 195 "/global/u2/p/psli/Orion2/Lib/Chombo/lib/src/MHDTools/../../src/BoxTools/SPACE.H"

# 3 "p/3d.Linux.64.mpiCC.mpif90.OPT.MPI-blpdata/MhdF.C"
# 1 "/global/u2/p/psli/Orion2/Lib/Chombo/lib/src/MHDTools/../../src/BaseTools/CONSTANTS.H"
# 10 "/global/u2/p/psli/Orion2/Lib/Chombo/lib/src/MHDTools/../../src/BaseTools/CONSTANTS.H"


# 1 "/global/u2/p/psli/Orion2/Lib/Chombo/lib/src/MHDTools/../../src/BaseTools/BaseNamespaceHeader.H"
# 10 "/global/u2/p/psli/Orion2/Lib/Chombo/lib/src/MHDTools/../../src/BaseTools/BaseNamespaceHeader.H"

# 15 "/global/u2/p/psli/Orion2/Lib/Chombo/lib/src/MHDTools/../../src/BaseTools/CONSTANTS.H"

# 67 "/global/u2/p/psli/Orion2/Lib/Chombo/lib/src/MHDTools/../../src/BaseTools/CONSTANTS.H"

# 91 "/global/u2/p/psli/Orion2/Lib/Chombo/lib/src/MHDTools/../../src/BaseTools/CONSTANTS.H"

# 115 "/global/u2/p/psli/Orion2/Lib/Chombo/lib/src/MHDTools/../../src/BaseTools/CONSTANTS.H"







# 1 "/global/u2/p/psli/Orion2/Lib/Chombo/lib/src/MHDTools/../../src/BaseTools/BaseNamespaceFooter.H"
# 10 "/global/u2/p/psli/Orion2/Lib/Chombo/lib/src/MHDTools/../../src/BaseTools/BaseNamespaceFooter.H"

# 123 "/global/u2/p/psli/Orion2/Lib/Chombo/lib/src/MHDTools/../../src/BaseTools/CONSTANTS.H"
# 4 "p/3d.Linux.64.mpiCC.mpif90.OPT.MPI-blpdata/MhdF.C"

# 1 "/global/u2/p/psli/Orion2/Lib/Chombo/lib/src/MHDTools/../../src/BaseTools/CONSTANTS.H"
# 10 "/global/u2/p/psli/Orion2/Lib/Chombo/lib/src/MHDTools/../../src/BaseTools/CONSTANTS.H"


# 6 "p/3d.Linux.64.mpiCC.mpif90.OPT.MPI-blpdata/MhdF.C"
      subroutine GETGRAD(
     &           idInteriorlo0,idInteriorlo1,idInteriorlo2
     &           ,idInteriorhi0,idInteriorhi1,idInteriorhi2
     &           ,iloedgelo0,iloedgelo1,iloedgelo2
     &           ,iloedgehi0,iloedgehi1,iloedgehi2
     &           ,ihiedgelo0,ihiedgelo1,ihiedgelo2
     &           ,ihiedgehi0,ihiedgehi1,ihiedgehi2
     &           ,idir
     &           ,haslo
     &           ,hashi
     &           ,q
     &           ,iqlo0,iqlo1,iqlo2
     &           ,iqhi0,iqhi1,iqhi2
     &           ,dq
     &           ,idqlo0,idqlo1,idqlo2
     &           ,idqhi0,idqhi1,idqhi2
     &           )

      implicit none
      integer CHF_ID(0:5,0:5)
      data CHF_ID/ 1,0,0,0,0,0 ,0,1,0,0,0,0 ,0,0,1,0,0,0 ,0,0,0,1,0,0 ,0,0,0,0,1,0 ,0,0,0,0,0,1 /


      integer idInteriorlo0,idInteriorlo1,idInteriorlo2
      integer idInteriorhi0,idInteriorhi1,idInteriorhi2
      integer iloedgelo0,iloedgelo1,iloedgelo2
      integer iloedgehi0,iloedgehi1,iloedgehi2
      integer ihiedgelo0,ihiedgelo1,ihiedgelo2
      integer ihiedgehi0,ihiedgehi1,ihiedgehi2
      integer idir
      integer haslo
      integer hashi
      integer iqlo0,iqlo1,iqlo2
      integer iqhi0,iqhi1,iqhi2
      REAL*8 q(
     &           iqlo0:iqhi0,
     &           iqlo1:iqhi1,
     &           iqlo2:iqhi2)
      integer idqlo0,idqlo1,idqlo2
      integer idqhi0,idqhi1,idqhi2
      REAL*8 dq(
     &           idqlo0:idqhi0,
     &           idqlo1:idqhi1,
     &           idqlo2:idqhi2)
      integer spacedim,ldir,i,j,k
      integer ioff,joff,koff
      spacedim = 3
      
      ioff = CHF_ID(0,idir)
      joff = CHF_ID(1,idir)
      koff = CHF_ID(2,idir)
      
      do k = idInteriorlo2,idInteriorhi2
      do j = idInteriorlo1,idInteriorhi1
      do i = idInteriorlo0,idInteriorhi0

      dq(i,j,k) = (q(i+ioff,j+joff,k+koff) -
     &     q(i-ioff,j-joff,k-koff))/2
      
      enddo
      enddo
      enddo
      if (haslo .eq. 1) then
         
      do k = iloedgelo2,iloedgehi2
      do j = iloedgelo1,iloedgehi1
      do i = iloedgelo0,iloedgehi0

         dq(i,j,k) =
     &        q(i+ioff,j+joff,k+koff) - q(i,j,k)
         
      enddo
      enddo
      enddo
      endif
      if (hashi .eq. 1) then
         
      do k = ihiedgelo2,ihiedgehi2
      do j = ihiedgelo1,ihiedgehi1
      do i = ihiedgelo0,ihiedgehi0

         dq(i,j,k) =
     &        q(i,j,k) - q(i-ioff,j-joff,k-koff)
         
      enddo
      enddo
      enddo
      endif
      return
      end
      subroutine MAGNITUDE(
     &           iblo0,iblo1,iblo2
     &           ,ibhi0,ibhi1,ibhi2
     &           ,mag
     &           ,imaglo0,imaglo1,imaglo2
     &           ,imaghi0,imaghi1,imaghi2
     &           ,data
     &           ,idatalo0,idatalo1,idatalo2
     &           ,idatahi0,idatahi1,idatahi2
     &           ,ndatacomp
     &           )

      implicit none
      integer iblo0,iblo1,iblo2
      integer ibhi0,ibhi1,ibhi2
      integer imaglo0,imaglo1,imaglo2
      integer imaghi0,imaghi1,imaghi2
      REAL*8 mag(
     &           imaglo0:imaghi0,
     &           imaglo1:imaghi1,
     &           imaglo2:imaghi2)
      integer ndatacomp
      integer idatalo0,idatalo1,idatalo2
      integer idatahi0,idatahi1,idatahi2
      REAL*8 data(
     &           idatalo0:idatahi0,
     &           idatalo1:idatahi1,
     &           idatalo2:idatahi2,
     &           0:ndatacomp-1)
      integer i, j, k, d
      REAL*8 r, s
      
      do k = iblo2,ibhi2
      do j = iblo1,ibhi1
      do i = iblo0,ibhi0

      s = (0.0d0)
      do d = 0, 3 - 1
         r = data(i,j,k,d)
         s = s + r*r
      end do
      mag(i,j,k) = sqrt(s)
      
      enddo
      enddo
      enddo
      return
      end
      subroutine INCREMENTBFACE(
     &           b
     &           ,iblo0,iblo1,iblo2
     &           ,ibhi0,ibhi1,ibhi2
     &           ,e
     &           ,ielo0,ielo1,ielo2
     &           ,iehi0,iehi1,iehi2
     &           ,scale
     &           ,h
     &           ,ifaceBoxlo0,ifaceBoxlo1,ifaceBoxlo2
     &           ,ifaceBoxhi0,ifaceBoxhi1,ifaceBoxhi2
     &           ,edgeDir
     &           ,faceDir
     &           )

      implicit none
      integer CHF_ID(0:5,0:5)
      data CHF_ID/ 1,0,0,0,0,0 ,0,1,0,0,0,0 ,0,0,1,0,0,0 ,0,0,0,1,0,0 ,0,0,0,0,1,0 ,0,0,0,0,0,1 /


      integer iblo0,iblo1,iblo2
      integer ibhi0,ibhi1,ibhi2
      REAL*8 b(
     &           iblo0:ibhi0,
     &           iblo1:ibhi1,
     &           iblo2:ibhi2)
      integer ielo0,ielo1,ielo2
      integer iehi0,iehi1,iehi2
      REAL*8 e(
     &           ielo0:iehi0,
     &           ielo1:iehi1,
     &           ielo2:iehi2)
      REAL*8 scale
      REAL*8 h
      integer ifaceBoxlo0,ifaceBoxlo1,ifaceBoxlo2
      integer ifaceBoxhi0,ifaceBoxhi1,ifaceBoxhi2
      integer edgeDir
      integer faceDir
      integer i, j, k
      REAL*8 mult, thisCurl
      integer dir1, dir2
      integer ii1, jj1, kk1
      integer ii2, jj2, kk2
      if ((3 .eq.2).or.(faceDir.eq.2)) then
         dir1 = 0
         dir2 = 1
      else if (faceDir.eq.0) then
         dir1 = 1
         dir2 = 2
      else if (faceDir.eq.1) then
         dir1 = 2
         dir2 = 0
      else
         write (*,*) 'INCREMENTBFACE: bad direction = ', faceDir
         call MAYDAY_ERROR(
     &           );
      endif
      ii1 = CHF_ID(dir1,0)
      jj1 = CHF_ID(dir1,1)
      kk1 = CHF_ID(dir1,2)
      ii2 = CHF_ID(dir2,0)
      jj2 = CHF_ID(dir2,1)
      kk2 = CHF_ID(dir2,2)
      mult = scale/h
      
      do k = ifaceBoxlo2,ifaceBoxhi2
      do j = ifaceBoxlo1,ifaceBoxhi1
      do i = ifaceBoxlo0,ifaceBoxhi0

      if (edgeDir.eq.dir1) then
           thisCurl =  -mult*(
     &          (e(i+ii2,j+jj2,k+kk2)
     &          -e(i,j,k)))
          b(i,j,k) = b(i,j,k) 
     &          -mult*(
     &          (e(i+ii2,j+jj2,k+kk2)
     &          -e(i,j,k)))
       else if (edgeDir.eq.dir2) then
         thisCurl = mult*((e(i+ii1,j+jj1,k+kk1)
     &         -e(i,j,k)))
          b(i,j,k) = b(i,j,k) 
     +         +mult*((e(i+ii1,j+jj1,k+kk1)
     &         -e(i,j,k)))
      endif
      
      enddo
      enddo
      enddo
      return
      end
      subroutine NEUMANNBC(
     &           phi
     &           ,iphilo0,iphilo1,iphilo2
     &           ,iphihi0,iphihi1,iphihi2
     &           ,nphicomp
     &           ,idomainlo0,idomainlo1,idomainlo2
     &           ,idomainhi0,idomainhi1,idomainhi2
     &           )

      implicit none
      integer nphicomp
      integer iphilo0,iphilo1,iphilo2
      integer iphihi0,iphihi1,iphihi2
      REAL*8 phi(
     &           iphilo0:iphihi0,
     &           iphilo1:iphihi1,
     &           iphilo2:iphihi2,
     &           0:nphicomp-1)
      integer idomainlo0,idomainlo1,idomainlo2
      integer idomainhi0,idomainhi1,idomainhi2
      integer i, j, k
      integer n
      do n=0, nphicomp-1
      
      do k = iphilo2,iphihi2
      do j = iphilo1,iphihi1
      do i = iphilo0,iphihi0

      
         if (i.lt.idomainlo0) then
            phi(i,j,k,n) = phi(i+1,j,k,n)
         else if (i.gt.idomainhi0) then
            phi(i,j,k,n) = phi(i-1,j,k,n)
         endif
         if (j.lt.idomainlo1) then
            phi(i,j,k,n) = phi(i,j+1,k,n)
         else if (j.gt.idomainhi1) then
            phi(i,j,k,n) = phi(i,j-1,k,n)
         endif
         if (k.lt.idomainlo2) then
            phi(i,j,k,n) = phi(i,j,k+1,n)
         else if (k.gt.idomainhi2) then
            phi(i,j,k,n) = phi(i,j,k-1,n)
         endif
         
       
      enddo
      enddo
      enddo
       enddo
       return
       end     
      subroutine MHD_RESID(
     &           resid
     &           ,iresidlo0,iresidlo1,iresidlo2
     &           ,iresidhi0,iresidhi1,iresidhi2
     &           ,phi
     &           ,iphilo0,iphilo1,iphilo2
     &           ,iphihi0,iphihi1,iphihi2
     &           ,rhs
     &           ,irhslo0,irhslo1,irhslo2
     &           ,irhshi0,irhshi1,irhshi2
     &           ,maxResid
     &           ,dx
     &           )

      implicit none
      integer iresidlo0,iresidlo1,iresidlo2
      integer iresidhi0,iresidhi1,iresidhi2
      REAL*8 resid(
     &           iresidlo0:iresidhi0,
     &           iresidlo1:iresidhi1,
     &           iresidlo2:iresidhi2)
      integer iphilo0,iphilo1,iphilo2
      integer iphihi0,iphihi1,iphihi2
      REAL*8 phi(
     &           iphilo0:iphihi0,
     &           iphilo1:iphihi1,
     &           iphilo2:iphihi2)
      integer irhslo0,irhslo1,irhslo2
      integer irhshi0,irhshi1,irhshi2
      REAL*8 rhs(
     &           irhslo0:irhshi0,
     &           irhslo1:irhshi1,
     &           irhslo2:irhshi2)
      REAL*8 maxResid
      REAL*8 dx
      integer i, j, k
      REAL*8 one_on_DxSqr, lapPhi
      maxResid = 0.0
      one_on_DxSqr = (1.0d0)/(dx*dx)
      
      do k = iresidlo2,iresidhi2
      do j = iresidlo1,iresidhi1
      do i = iresidlo0,iresidhi0

        lapPhi = 
     &     one_on_DxSqr*(phi(i+1,j,k)+phi(i-1,j,k)
     &                   -(2.0d0)*phi(i,j,k))
     &    +one_on_DxSqr*(phi(i,j+1,k)+phi(i,j-1,k)
     &                   -(2.0d0)*phi(i,j,k))
     &    +one_on_DxSqr*(phi(i,j,k+1)+phi(i,j,k-1)
     &                   -(2.0d0)*phi(i,j,k))
                        
         resid(i,j,k) = rhs(i,j,k) - lapPhi
         if (abs(resid(i,j,k)).gt.maxResid) 
     &       maxResid = abs(resid(i,j,k))
       
      enddo
      enddo
      enddo
       return
       end
      subroutine OLDGSRBLEVELLAP(
     &           phi
     &           ,iphilo0,iphilo1,iphilo2
     &           ,iphihi0,iphihi1,iphihi2
     &           ,nphicomp
     &           ,rhs
     &           ,irhslo0,irhslo1,irhslo2
     &           ,irhshi0,irhshi1,irhshi2
     &           ,nrhscomp
     &           ,iregionlo0,iregionlo1,iregionlo2
     &           ,iregionhi0,iregionhi1,iregionhi2
     &           ,dx
     &           ,redBlack
     &           )

      implicit none
      integer nphicomp
      integer iphilo0,iphilo1,iphilo2
      integer iphihi0,iphihi1,iphihi2
      REAL*8 phi(
     &           iphilo0:iphihi0,
     &           iphilo1:iphihi1,
     &           iphilo2:iphihi2,
     &           0:nphicomp-1)
      integer nrhscomp
      integer irhslo0,irhslo1,irhslo2
      integer irhshi0,irhshi1,irhshi2
      REAL*8 rhs(
     &           irhslo0:irhshi0,
     &           irhslo1:irhshi1,
     &           irhslo2:irhshi2,
     &           0:nrhscomp-1)
      integer iregionlo0,iregionlo1,iregionlo2
      integer iregionhi0,iregionhi1,iregionhi2
      REAL*8 dx
      integer redBlack
      REAL*8 lambda
      REAL*8 dxinv,sum_b, lphi
      integer i,j,k
      integer n,ncomp,idir,indtot,imin,imax
      dxinv = (1.0d0)/(dx*dx)
      sum_b = 0.0
      do idir = 0, 3-1
         sum_b = sum_b + (2.0d0)*dxinv
      enddo
      lambda = (1.0d0)/sum_b
      ncomp = nphicomp
      if(ncomp .ne. nrhscomp) then
         call MAYDAYERROR(
     &           )
      endif
      do n = 0, ncomp - 1

         do k=iregionlo2, iregionhi2


            do j=iregionlo1, iregionhi1

               imin = iregionlo0
               indtot = imin + j  + k 
               imin = imin + abs(mod(indtot + redBlack, 2))
               imax = iregionhi0
               do i = imin, imax, 2
                 
                 lphi =  ((phi(i+1,j,k,n)
     &                   - phi(i,j,k,n))
     &                   -(phi(i,j,k,n)
     &                   - phi(i-1,j,k,n)))*dxinv
     &                +  ((phi(i,j+1,k,n)
     &                   - phi(i,j,k,n))
     &                   -(phi(i,j,k,n)
     &                   - phi(i,j-1,k,n)))*dxinv
     &                +  ((phi(i,j,k+1,n)
     &                   - phi(i,j,k,n))
     &                   -(phi(i,j,k,n)
     &                   - phi(i,j,k-1,n)))*dxinv 
                  phi(i,j,k,n) = phi(i,j,k,n) +
     &                 lambda*(lphi - rhs(i,j,k,n))
               enddo
            enddo

         enddo


      enddo

      return
      end
